1 10 20
100 200 125
201 210 89
900 1000 174
394764 973285 525
585125 441471 470
427126 802770 509
203505 345439 443
742638 852129 525
852322 410882 525
385251 123931 443
207598 425329 449
833042 233498 509
581398 443638 470
669898 354374 509
837311 693535 504
981175 62111 525
147476 104758 375
669544 485032 509
639111 733621 504
974818 341261 525
502125 388047 449
880186 606363 525
726899 327813 509
795563 171553 509
420702 192665 449
866235 413377 525
981535 839255 507
249585 73028 443
432319 151627 449
930213 209608 525
53048 487195 449
661453 404812 509
960029 405937 525
605856 866636 525
439089 47095 449
226330 285650 443
140415 56420 354
518763 336089 470
622784 488339 470
168744 291485 443
901925 778109 525
706529 328030 509
402539 543142 470
36010 382945 443
236319 261078 368
465145 916044 525
453700 391659 449
371663 513903 470
232442 384544 441
51375 356079 443
708341 988588 525
841529 376952 525
597775 55291 470
100319 37893 351
27514 796537 509
374059 844159 525
100400 797692 509
490424 183629 449
862566 300544 525
577801 277950 470
862646 366384 525
815145 63680 509
420693 264104 449
279904 748116 509
627786 998370 525
384911 873841 525
711936 83433 509
473294 388436 449
700592 909535 525
608336 819549 509
43095 590702 470
723047 88111 509
829434 924559 525
233695 411684 449
464880 409695 449
288157 47581 443
326240 420242 449
929121 734583 525
947326 562892 525
573715 866394 525
620792 381040 470
243566 312068 407
914921 328198 525
899561 119210 525
646052 653288 385
131165 442158 449
496674 871734 525
483542 120678 449
288767 12568 443
23322 89946 351
169176 151824 383
207601 531177 470
33306 312121 443
831509 648413 504
780143 182078 509
996600 81715 525
172353 675315 509
360373 742060 509
286287 790283 509
437418 815780 509
704717 714593 411
562007 128182 470
315783 285458 389
472701 949723 525
782114 11576 509
48170 471400 449
276311 352743 441
527212 588809 452
620648 11507 470
263755 443452 449
523888 703610 509
503716 1927 449
875573 629585 525
325445 122791 443
873404 26997 525
343381 980105 525
96338 273776 443
572635 573919 359
12806 409794 443
151069 488943 449
865010 706979 525
611819 940167 525
117736 761112 509
637087 383925 509
238917 74848 443
351498 456423 449
337415 733061 509
20533 320039 443
516983 72337 470
816381 750186 468
531824 116341 470
58441 807110 509
269758 376072 441
637311 647465 416
597100 785727 509
913976 379652 525
611170 937313 525
796682 936475 525
628870 510826 509
126645 811246 509
143527 29954 375
205956 197429 355
986398 585447 525
271922 123961 443
916800 942671 507
967169 75004 525
541048 536172 408
610492 153424 470
122941 263113 443
519225 186964 470
81484 794282 509
827087 405374 509
104620 912049 525
655626 293000 509
427202 145853 449
969414 999038 458
56591 406855 443
866927 19099 525
87805 944032 525
274064 60123 443
182173 570341 470
256401 7116 443
529088 379411 470
49720 865525 525
921350 628516 525
271383 445479 449
568079 688460 509
786435 794566 437
139424 561 354
157072 336125 443
429379 691477 509
871097 711136 525
557909 319453 470
997037 648961 525
566410 429207 470
571043 492008 470
678028 413257 509
447385 688055 509
515881 527269 439
342474 771324 509
519167 140581 470
705278 655455 504
310270 729718 509
58965 486839 449
814103 417647 509
777451 96448 509
394696 653012 509
368293 467988 449
915702 587189 525
610409 968338 525
534923 521936 408
715944 846017 525
443113 341174 449
904713 22899 525
772723 795475 437
264890 334215 407
269681 455516 449
70934 341391 443
596373 880047 525
224285 917074 525
796667 138239 509
295533 788302 509
217591 737143 509
