1 10 20
100 200 125
201 210 89
900 1000 174
1 1 1
1 2 2
1000 2000 182
778654 785090 362
211670 230377 386
647547 656692 385
57141 60932 317
621692 624504 372
877059 910091 445
421451 289316 449
705407 969737 525
341591 594301 470
757880 547411 509
918917 40828 525
310897 416340 449
978587 333901 525
195575 109117 383
234634 971871 525
897593 852926 445
261605 964169 525
968758 263827 525
533898 231211 470
663328 162444 509
775089 13311 509
702553 290873 509
842552 781313 525
322251 91931 443
856991 66403 525
745067 122155 509
230003 142708 386
476130 579121 470
139787 358173 443
377739 616806 470
59529 877757 525
701621 166217 509
630718 375631 509
19538 83331 351
13124 416587 449
313968 27982 443
185683 980799 525
198799 752607 509
554510 832265 509
979215 715390 525
556734 215895 470
740248 6712 509
590583 584361 359
515256 332505 470
841695 48651 525
420882 196674 449
486247 548970 470
735824 317827 509
200741 609364 470
544785 383301 470
188833 556149 470
751702 962087 525
711171 235957 509
137187 381635 443
195627 9000 383
995112 842050 507
417417 644507 509
452104 451090 307
676732 329951 509
609408 889291 525
788573 805811 468
201858 118294 383
527565 795430 509
245609 144541 443
562619 531962 452
430895 999039 525
86425 210841 383
796050 290067 509
790701 350919 509
660554 213710 509
108073 170295 383
693051 839865 525
393050 34624 443
936028 29964 525
775485 659986 504
571319 936911 525
376432 862515 525
216030 991751 525
104398 348689 443
850657 265092 525
754720 8905 509
700138 442450 509
220369 139663 386
881157 16377 525
620138 954269 525
350875 497781 449
264058 747962 509
174455 726636 509
905446 931166 476
900653 761139 525
497396 814327 509
599649 149321 470
591236 658511 509
759948 379653 509
501125 267261 449
944086 945563 383
440023 408532 449
266498 171525 443
603575 60832 470
596924 245010 470
604113 619125 447
740629 579229 509
104476 430862 449
29440 709593 509
76353 49497 340
461609 614282 470
868804 361301 525
589701 798643 509
450352 605805 470
51865 580816 470
999212 556170 525
769211 875969 525
184516 453790 449
739312 348931 509
458383 21740 449
728322 250828 509
997109 95459 525
334414 661140 509
365400 356898 410
471247 502631 426
462790 860379 525
437151 162797 449
324557 909098 525
41502 264401 443
304340 315626 384
471746 638568 509
645960 168648 509
8992 646297 509
361626 805456 509
327458 665266 509
434799 209248 449
827251 326501 509
737756 648511 504
305897 120788 443
441653 30009 449
909793 182934 525
730901 580382 509
860930 762189 525
453677 497527 444
441523 69053 449
973502 518996 525
554843 31215 470
107317 894595 525
568162 602227 434
122972 766148 509
345043 28475 443
827868 913615 525
307825 920783 525
9651 914857 525
84742 917011 525
80424 548508 470
578249 745946 509
699694 287971 509
168707 612188 470
803308 128527 509
237320 656271 509
213605 913890 525
171790 184568 365
587586 537082 452
551925 870949 525
22327 779755 509
108077 967625 525
381749 994251 525
170125 507084 449
745570 118571 509
156381 264728 443
987103 907466 507
203543 657036 509
786625 211954 509
391115 191089 443
638713 345526 509
539063 271473 470
387877 579713 470
714902 553617 509
475139 517514 470
98500 554919 470
367949 830572 509
86575 175780 383
887008 681806 525
949877 210959 525
50470 419572 449
809375 500249 509
12520 282854 443
897915 264114 525
150340 710117 509
425655 344921 449
277717 843156 525
78943 434958 449
665350 909793 525
863059 418384 525
80483 496906 449
264446 66256 443
378771 867403 525
844159 63156 525
290632 222761 443
913610 624383 525
837837 186741 525
904014 642368 525
951456 197780 525
102341 125377 354
258648 727838 509
626778 836335 504
182906 355588 443
277205 622866 470
721036 401994 509
946176 181003 525
