863631 407159 525
481993 793968 509
564717 800502 509
366263 663625 509
619086 66895 470
858031 144794 525
298489 976707 525
965379 992535 458
288873 876591 525
66132 515552 470
504154 746451 509
2340 947751 525
707226 470885 509
328334 485329 449
205675 601475 470
22839 630562 509
168084 279248 443
738979 661162 504
382281 590292 470
525514 822835 509
685808 946930 525
822430 639718 504
696401 9025 509
690758 222471 509
29995 676302 509
166071 70959 383
605533 207299 470
89175 580579 470
903493 671473 525
833981 410323 509
521879 355998 470
279007 825770 509
579265 755141 509
505880 894858 525
469752 532816 470
50604 31762 324
671293 386838 509
682813 986292 525
81027 983312 525
711835 447139 509
674687 41509 509
384383 755887 509
593441 622601 447
736459 491642 509
940695 313655 525
545460 783602 509
170587 837970 525
537491 720108 509
112948 966474 525
549394 526127 452
578677 311047 470
4708 239235 443
705529 732500 411
636739 873500 525
330340 381561 441
152811 353358 443
17279 641859 509
279555 657487 509
690959 467867 509
21407 948386 525
589425 480708 470
102546 831778 509
801414 935979 525
624207 55806 470
831122 194353 509
340080 91408 443
241728 617090 470
440856 88206 449
485681 561918 470
933581 637337 525
912296 931966 476
403172 779899 509
187374 219740 386
579231 404796 470
670704 89686 509
600648 494811 470
539455 62149 470
973285 402410 525
301149 867504 525
604054 913962 525
205175 327216 443
288479 962830 525
443811 346210 449
570551 84563 470
436254 189122 449
955266 565028 525
630836 274926 509
641143 559741 509
46887 534317 470
119277 496100 449
576936 294378 470
528391 537511 377
868945 12258 525
711329 310271 509
321844 911134 525
742552 212946 509
34970 686435 509
54173 261648 443
641859 557416 509
196848 368334 443
6993 361381 443
924381 16253 525
649908 900453 525
302657 311081 371
832345 294388 509
992366 825637 525
604699 65898 470
799383 647498 504
599363 270545 470
731994 48348 509
902893 588844 525
394210 498759 449
180671 459131 449
392366 584854 470
768205 73678 509
847928 387410 525
360234 653250 509
206121 666048 509
915332 770266 525
849673 777096 525
666008 559153 509
10113 309589 443
864699 897286 445
367201 259217 441
89109 605997 470
406404 77769 443
69913 731392 509
981496 753453 525
881055 51876 525
623411 726138 509
450334 929200 525
159227 616761 470
967890 468133 525
525533 226507 470
251081 162384 443
521522 915701 525
713703 44352 509
776597 761680 468
261781 209187 443
476661 863881 525
393674 195510 443
720082 569194 509
192962 621283 470
731262 322584 509
404895 695136 509
268708 764849 509
150624 906018 525
73393 774647 509
406064 871708 525
775920 357473 509
742917 635946 504
608420 594483 403
852648 824797 525
737820 614154 509
3754 558915 470
359146 993284 525
352319 595232 470
29633 660725 509
345724 469216 449
633576 49838 509
885255 906034 445
921986 421307 525
829408 820221 419
740882 215434 509
163578 700550 509
707728 989977 525
313584 354622 441
45262 977986 525
482877 170520 449
454115 878381 525
406219 448147 449
956426 740663 525
803693 92503 509
351013 905085 525
918812 369710 525
501801 242626 449
182069 196803 360
772190 543 509
832892 451107 509
645510 730015 504
370896 472756 449
141754 494292 449
627573 532003 509
650015 920076 525
114099 234146 443
293430 544928 470
253541 32721 443
163495 87745 383
979650 721395 525
416679 695886 509
371111 958380 525
82543 387779 443
647577 920054 525
715469 485129 509
989107 440034 525
844276 353205 525
615216 977279 525
708180 464263 509
572492 543610 452
354368 900314 525
22803 828543 509
147888 41170 375
51202 657564 509
219614 883094 525
163820 403322 443
924588 550210 525
956177 19346 525
570357 829812 509
722023 276603 509
138807 90573 354
847442 921430 476
44610 422354 449
892596 648195 525
156220 719532 509
635564 758590 504
469750 840222 525
616594 871045 525
400336 634930 509
781482 160336 509
425573 73408 449
640585 549233 509
518636 191953 470
975346 713001 525
462382 720254 509
791542 860478 525
369169 837413 509
942351 750598 525
950675 621803 525
890144 467120 525
318655 515653 470
813481 385096 509
164704 330413 443
199905 315864 443
953090 519914 525
700381 484723 509
101790 772953 509
986141 953942 458
891273 397346 525
233721 331104 407
256523 1121 443
344415 168008 443
569645 899754 525
403827 105013 443
977076 900685 507
729629 794784 468
989353 146429 525
950400 25543 525
685540 932041 525
690221 592109 509
725794 668336 504
