845883 862681 419
518018 592989 452
341908 714716 509
316650 772688 509
912131 623564 525
195259 412453 449
522286 680066 509
216752 146670 386
200854 92450 383
677439 566427 509
564798 474130 470
38407 326361 443
433599 589165 470
229392 109796 386
340026 872301 525
230861 574839 470
921780 170329 525
104538 187682 383
756480 263654 509
508921 836538 509
10292 861564 525
533061 758526 509
54400 283354 443
143758 21452 375
808579 713148 468
795827 426664 509
851983 945229 507
545232 255133 470
546640 46967 470
782395 756621 468
548640 821529 509
213064 167964 373
571263 683102 509
532260 648151 509
396450 985765 525
768 12226 268
548553 438058 470
285672 754736 509
33171 112106 354
233912 59304 443
584800 967629 525
691289 620951 509
681204 631306 442
558094 564958 421
140544 599208 470
199860 617684 470
798811 299198 509
399287 175172 443
696394 752923 504
267748 458301 449
406745 916375 525
893216 529115 525
102001 250661 443
326950 463871 449
503148 247258 449
75280 258822 443
361344 791578 509
871362 451717 525
871511 913269 476
670869 414961 509
787877 287554 509
11593 46098 324
608552 236733 470
119038 688097 509
291199 864984 525
715395 978064 525
284566 179428 443
494597 941902 525
813839 745106 468
648905 524188 509
304491 153911 443
439379 217133 449
561675 285499 470
794081 595730 509
165073 836272 509
130775 517129 470
113940 338415 443
313969 520138 470
333055 209604 443
649995 462980 509
738880 13300 509
635102 856006 525
136429 326743 443
402144 213391 443
562168 364165 470
782179 217919 509
590932 740426 509
859000 132270 525
754356 23267 509
521566 659940 509
895850 465888 525
967725 292169 525
700266 921459 525
354042 294361 441
772726 216628 509
18968 123920 354
746497 544739 509
896539 528131 525
6490 574038 470
389133 302215 441
723157 703719 504
582096 265647 470
852521 86532 525
611113 453022 470
207317 457784 449
222671 553371 470
947343 754036 525
877208 56594 525
935758 805846 525
256476 835500 509
500332 564118 470
69313 616240 470
966631 930044 507
980744 593485 525
18936 592352 470
701535 732770 504
215398 620812 470
856964 665772 525
558068 280636 470
741407 302676 509
229820 177829 386
234209 61223 443
10689 444409 449
743541 879176 525
823897 132252 509
14512 896207 525
538408 675920 509
140553 262073 443
998278 739732 525
836425 385119 509
569448 776309 509
543390 71987 470
864059 2784 525
798356 821985 450
416518 268763 449
974702 797433 525
670002 937118 525
376643 226551 443
246939 82761 443
992262 779202 525
711172 514104 509
561519 915297 525
193001 949320 525
225124 561293 470
981768 504703 525
170545 240151 443
21396 393519 443
375289 650517 509
111096 742170 509
595475 531222 452
411745 953528 525
234487 516751 470
565449 145707 470
419238 890703 525
265676 860842 525
253406 12436 443
362049 810482 509
152651 535766 470
766713 988152 525
981602 595072 525
553682 602848 434
94697 57264 351
220524 705309 509
764888 790740 468
764548 246685 509
123730 561492 470
47142 426588 449
449237 336152 449
117518 945134 525
827890 778480 468
752699 562393 509
439719 199447 449
216743 22942 386
729957 791541 468
849096 244807 525
481706 162829 449
880289 276992 525
205080 59448 383
462235 52870 449
703036 810959 504
978994 863767 507
331957 546348 470
573006 230210 470
189030 537315 470
911185 608558 525
637289 441735 509
293822 510113 449
959969 880772 507
386483 276720 441
332201 765046 509
194680 923532 525
609541 519886 452
481283 810590 509
272624 946113 525
782971 68180 509
871297 832832 525
359389 410507 449
174081 525053 470
422271 413874 387
868875 448693 525
847206 394254 525
110252 938680 525
373642 273299 441
929801 116110 525
888991 719913 525
605798 599264 403
616834 22140 470
437668 823792 509
991422 149653 525
839021 759602 525
903210 417792 525
95661 756576 509
294889 826805 509
54123 969349 525
560899 678770 509
357459 30312 443
564789 504130 470
718523 770688 468
377513 921085 525
172487 779237 509
387034 430533 449
766839 341687 509
699804 492487 509
831282 26798 509
991904 758895 525
28551 119663 354
902210 846656 445
541925 65126 470
180860 227866 386
521275 278393 470
429601 565568 470
730963 346623 509
856054 989846 507
330280 553586 470
722532 531849 509
419391 3923 449
592896 271520 470
78357 998707 525
903909 296640 525
395393 468683 449
881202 797958 525
747887 625488 509
959527 849692 507
236343 162187 443
316001 810779 509
644057 394730 509
356182 639030 509
950839 391927 525
564974 794498 509
317287 612692 470
761488 217973 509
791207 155985 509
92626 239187 443
990818 210687 525
362923 403147 436
713358 974506 525
647608 123860 509
673910 710073 504
429652 177296 449
539621 172471 470
890094 593755 525
904408 72086 525
27701 150559 375
222565 962955 525
998565 316568 525
331775 329119 353
64761 396478 443
865950 913912 476
971800 475241 525
629563 929934 525
79946 163548 383
572210 517671 452
427180 487168 444
564866 470379 470
3861 45323 324
186490 384708 443
912736 82613 525
871643 772218 525
154864 929711 525
977581 508640 525
676604 56416 509
86700 961337 525
157330 89968 383
160230 549098 470
532973 966351 525
435204 257725 449
295224 967634 525
302750 329154 384
371962 43962 443
792324 532677 509
823217 613044 509
272096 441491 449
439068 427061 400
306372 508914 449
361514 841917 525
200441 593982 470
173557 633754 509
941594 303853 525
580306 416770 470
50694 927707 525
